*** 2019-08-07 08:03:22 ***
 - Build Completed
 - CRC32 = 0xb2fe2cbe
 - Image library CRC32 = 0x3a02c4f9
 - File size = 3895296 bytes

 - STM32 source file : C:\Git\STF362P\OTA\_SecondImage\Sources\STM32\STF362P.srec
 - SAMR21 source file : C:\Git\STF362P\OTA\_SecondImage\Sources\SAMR21\ATSAMR21E18A - 23.srec
 - Image library source file : C:\Git\STF362P\Display\Images\Debug\Exe\ImagesLibSTF362P.bin
 - Output file : C:\Git\STF362P\OTA\_ThirdImage\STF362PBuild.bin


