
HKEY_LOCAL_MACHINE\HARDWARE\DEVICEMAP\SERIALCOMM
    \Device\Serial0    REG_SZ    COM1
    \Device\LSIModem5    REG_SZ    COM3
    \Device\VCP3    REG_SZ    COM10
    \Device\USBSER000    REG_SZ    COM16

